…
Create a list of all of the datafiles and then iterate through them to read them all in.


```r
my_files <- list.files(path = "Data/Mouse/1D - MAPT+-+ Soma-AIS Gap/")

Fig1D <- map(my_files, ~readclean(.))
Fig1D <- bind_rows(Fig1D)

Fig1D
```

```
## # A tibble: 298 × 4
##    `Distance_(microns)` filename                                    Neuron   Gap
##    <lgl>                <chr>                                       <chr>  <dbl>
##  1 NA                   (1D) MAPT+_+ Vehicle 1 =  6.2.21 WTs DIV 1… Neuro… 18.0 
##  2 NA                   (1D) MAPT+_+ Vehicle 1 =  6.2.21 WTs DIV 1… Neuro…  7.86
##  3 NA                   (1D) MAPT+_+ Vehicle 1 =  6.2.21 WTs DIV 1… Neuro… 25.8 
##  4 NA                   (1D) MAPT+_+ Vehicle 1 =  6.2.21 WTs DIV 1… Neuro…  7.63
##  5 NA                   (1D) MAPT+_+ Vehicle 1 =  6.2.21 WTs DIV 1… Neuro…  6.97
##  6 NA                   (1D) MAPT+_+ Vehicle 1 =  6.2.21 WTs DIV 1… Neuro… 29.4 
##  7 NA                   (1D) MAPT+_+ Vehicle 1 =  6.2.21 WTs DIV 1… Neuro… 16.2 
##  8 NA                   (1D) MAPT+_+ Vehicle 1 =  6.2.21 WTs DIV 1… Neuro…  8.29
##  9 NA                   (1D) MAPT+_+ Vehicle 1 =  6.2.21 WTs DIV 1… Neuro…  2.31
## 10 NA                   (1D) MAPT+_+ Vehicle 1 =  6.2.21 WTs DIV 1… Neuro… 20.9 
## # … with 288 more rows
```

Create new variables for Mouse and Group


```r
Fig1D <- Fig1D %>%
  select(-`Distance_(microns)`) %>%
  separate(filename, into = c(NA, "Mouse"), sep = "\\+ ") %>%
  separate(Mouse, into = c("Mouse", NA), sep = " = ")

Fig1D
```

```
## # A tibble: 298 × 3
##    Mouse     Neuron      Gap
##    <chr>     <chr>     <dbl>
##  1 Vehicle 1 Neuron 1  18.0 
##  2 Vehicle 1 Neuron 2   7.86
##  3 Vehicle 1 Neuron 3  25.8 
##  4 Vehicle 1 Neuron 4   7.63
##  5 Vehicle 1 Neuron 5   6.97
##  6 Vehicle 1 Neuron 6  29.4 
##  7 Vehicle 1 Neuron 7  16.2 
##  8 Vehicle 1 Neuron 8   8.29
##  9 Vehicle 1 Neuron 9   2.31
## 10 Vehicle 1 Neuron 10 20.9 
## # … with 288 more rows
```
…
Cells from embryos from one pregnant female were divided into vehicle and xcTauOs so we need to know which pregnant female the cells came from.


```r
Fig1D <- Fig1D %>%
  mutate(Experiment = case_when(str_detect(Mouse,"1") ~ "A", 
                                str_detect(Mouse,"2") ~ "B", 
                                str_detect(Mouse,"3") ~ "C",
                                str_detect(Mouse,"4") ~ "D"))

Fig1D
```

```
## # A tibble: 298 × 5
##    Group   Mouse     Neuron      Gap Experiment
##    <chr>   <chr>     <chr>     <dbl> <chr>     
##  1 Vehicle Vehicle 1 Neuron 1  18.0  A         
##  2 Vehicle Vehicle 1 Neuron 2   7.86 A         
##  3 Vehicle Vehicle 1 Neuron 3  25.8  A         
##  4 Vehicle Vehicle 1 Neuron 4   7.63 A         
##  5 Vehicle Vehicle 1 Neuron 5   6.97 A         
##  6 Vehicle Vehicle 1 Neuron 6  29.4  A         
##  7 Vehicle Vehicle 1 Neuron 7  16.2  A         
##  8 Vehicle Vehicle 1 Neuron 8   8.29 A         
##  9 Vehicle Vehicle 1 Neuron 9   2.31 A         
## 10 Vehicle Vehicle 1 Neuron 10 20.9  A         
## # … with 288 more rows
```
…
Create a list of all of the datafiles and then iterate through them to read them all in.


```r
my_files <- list.files(path = "Data/Mouse/1E - MAPT+-+ AIS Concentration/")

Fig1E <- map(my_files, ~readclean(.))
Fig1E <- bind_rows(Fig1E)

Fig1E
```

```
## # A tibble: 128,601 × 4
##    `Distance_(microns)` filename                                  Neuron Conce…¹
##                   <dbl> <chr>                                     <chr>    <dbl>
##  1                    0 (1E) MAPT+_+ Vehicle 1 =  6.2.21 WTs DIV… Neuro…   130. 
##  2                    0 (1E) MAPT+_+ Vehicle 1 =  6.2.21 WTs DIV… Neuro…   116. 
##  3                    0 (1E) MAPT+_+ Vehicle 1 =  6.2.21 WTs DIV… Neuro…    49.5
##  4                    0 (1E) MAPT+_+ Vehicle 1 =  6.2.21 WTs DIV… Neuro…    84.3
##  5                    0 (1E) MAPT+_+ Vehicle 1 =  6.2.21 WTs DIV… Neuro…    95.5
##  6                    0 (1E) MAPT+_+ Vehicle 1 =  6.2.21 WTs DIV… Neuro…   103. 
##  7                    0 (1E) MAPT+_+ Vehicle 1 =  6.2.21 WTs DIV… Neuro…    71.8
##  8                    0 (1E) MAPT+_+ Vehicle 1 =  6.2.21 WTs DIV… Neuro…   122. 
##  9                    0 (1E) MAPT+_+ Vehicle 1 =  6.2.21 WTs DIV… Neuro…    47.7
## 10                    0 (1E) MAPT+_+ Vehicle 1 =  6.2.21 WTs DIV… Neuro…    88.9
## # … with 128,591 more rows, and abbreviated variable name ¹​Concentration
```

Create new variables for Mouse and Group


```r
Fig1E <- Fig1E %>%
  rename(Dist = `Distance_(microns)`) %>%
  separate(filename, into = c(NA, "Mouse"), sep = "\\+ ") %>%
  separate(Mouse, into = c("Mouse", NA), sep = " = ")

Fig1E
```

```
## # A tibble: 128,601 × 4
##     Dist Mouse     Neuron    Concentration
##    <dbl> <chr>     <chr>             <dbl>
##  1     0 Vehicle 1 Neuron 1          130. 
##  2     0 Vehicle 1 Neuron 2          116. 
##  3     0 Vehicle 1 Neuron 3           49.5
##  4     0 Vehicle 1 Neuron 4           84.3
##  5     0 Vehicle 1 Neuron 5           95.5
##  6     0 Vehicle 1 Neuron 6          103. 
##  7     0 Vehicle 1 Neuron 7           71.8
##  8     0 Vehicle 1 Neuron 8          122. 
##  9     0 Vehicle 1 Neuron 9           47.7
## 10     0 Vehicle 1 Neuron 10          88.9
## # … with 128,591 more rows
```
…
Cells from embryos from one pregnant female were divided into vehicle and xcTauOs so we need to know which pregnant female the cells came from.


```r
Fig1E <- Fig1E %>%
  mutate(Experiment = case_when(str_detect(Mouse,"1") ~ "A", 
                                str_detect(Mouse,"2") ~ "B", 
                                str_detect(Mouse,"3") ~ "C",
                                str_detect(Mouse,"4") ~ "D"))

Fig1E
```

```
## # A tibble: 128,601 × 6
##    Group   Mouse     Neuron     Dist Concentration Experiment
##    <chr>   <chr>     <chr>     <dbl>         <dbl> <chr>     
##  1 Vehicle Vehicle 1 Neuron 1      0         130.  A         
##  2 Vehicle Vehicle 1 Neuron 2      0         116.  A         
##  3 Vehicle Vehicle 1 Neuron 3      0          49.5 A         
##  4 Vehicle Vehicle 1 Neuron 4      0          84.3 A         
##  5 Vehicle Vehicle 1 Neuron 5      0          95.5 A         
##  6 Vehicle Vehicle 1 Neuron 6      0         103.  A         
##  7 Vehicle Vehicle 1 Neuron 7      0          71.8 A         
##  8 Vehicle Vehicle 1 Neuron 8      0         122.  A         
##  9 Vehicle Vehicle 1 Neuron 9      0          47.7 A         
## 10 Vehicle Vehicle 1 Neuron 10     0          88.9 A         
## # … with 128,591 more rows
```
…
I used the `rollapply()` function rather than the more standard `rollmean()` function because `rollmean()` has no way to remove NAs.


```r
Fig1E <- Fig1E %>%
  group_by(Mouse, Neuron) %>%
  mutate(roll_Conc = rollapply(Concentration, 3, mean, na.rm = TRUE, fill = NA)) %>%
  ungroup()

Fig1E
```

```
## # A tibble: 35,712 × 7
##    Group   Mouse     Neuron    Dist Concentration Experiment roll_Conc
##    <chr>   <chr>     <chr>    <dbl>         <dbl> <chr>          <dbl>
##  1 Vehicle Vehicle 1 Neuron 1 0              130. A                NA 
##  2 Vehicle Vehicle 1 Neuron 1 0.135          143. A               144.
##  3 Vehicle Vehicle 1 Neuron 1 0.271          159. A               160.
##  4 Vehicle Vehicle 1 Neuron 1 0.406          177. A               178.
##  5 Vehicle Vehicle 1 Neuron 1 0.542          197. A               196.
##  6 Vehicle Vehicle 1 Neuron 1 0.677          213. A               212.
##  7 Vehicle Vehicle 1 Neuron 1 0.813          226. A               224.
##  8 Vehicle Vehicle 1 Neuron 1 0.948          234. A               233.
##  9 Vehicle Vehicle 1 Neuron 1 1.08           239. A               238.
## 10 Vehicle Vehicle 1 Neuron 1 1.22           240. A               240.
## # … with 35,702 more rows
```
…
```
## `summarise()` has grouped output by 'Group', 'Experiment', 'Mouse'. You can
## override using the `.groups` argument.
```

```r
avgint
```

```
## # A tibble: 297 × 6
##    Group   Experiment Mouse     Neuron    Mean_Conc     n
##    <chr>   <chr>      <chr>     <chr>         <dbl> <int>
##  1 Vehicle A          Vehicle 1 Neuron 1      191.    124
##  2 Vehicle A          Vehicle 1 Neuron 10     109.    122
##  3 Vehicle A          Vehicle 1 Neuron 11     148.    143
##  4 Vehicle A          Vehicle 1 Neuron 12      90.6    14
##  5 Vehicle A          Vehicle 1 Neuron 13     120.    136
##  6 Vehicle A          Vehicle 1 Neuron 14     113.    115
##  7 Vehicle A          Vehicle 1 Neuron 15      71.1   142
##  8 Vehicle A          Vehicle 1 Neuron 16      52.9    79
##  9 Vehicle A          Vehicle 1 Neuron 17     198.    138
## 10 Vehicle A          Vehicle 1 Neuron 18      69.4   107
## # … with 287 more rows
```
…
Check that each neuron only has one maximum


```r
maxint %>%
  count(Mouse, Neuron) %>%
  arrange(-n)
```

```
## # A tibble: 296 × 5
## # Groups:   Group, Experiment, Mouse [8]
##    Group   Experiment Mouse     Neuron        n
##    <chr>   <chr>      <chr>     <chr>     <int>
##  1 Vehicle A          Vehicle 1 Neuron 1      1
##  2 Vehicle A          Vehicle 1 Neuron 10     1
##  3 Vehicle A          Vehicle 1 Neuron 11     1
##  4 Vehicle A          Vehicle 1 Neuron 12     1
##  5 Vehicle A          Vehicle 1 Neuron 13     1
##  6 Vehicle A          Vehicle 1 Neuron 14     1
##  7 Vehicle A          Vehicle 1 Neuron 15     1
##  8 Vehicle A          Vehicle 1 Neuron 16     1
##  9 Vehicle A          Vehicle 1 Neuron 17     1
## 10 Vehicle A          Vehicle 1 Neuron 18     1
## # … with 286 more rows
```
…
Check that each neuron only has one maximum


```r
minint %>%
  count(Mouse, Neuron) %>%
  arrange(-n)
```

```
## # A tibble: 296 × 5
## # Groups:   Group, Experiment, Mouse [8]
##    Group   Experiment Mouse     Neuron        n
##    <chr>   <chr>      <chr>     <chr>     <int>
##  1 Vehicle A          Vehicle 1 Neuron 1      1
##  2 Vehicle A          Vehicle 1 Neuron 10     1
##  3 Vehicle A          Vehicle 1 Neuron 11     1
##  4 Vehicle A          Vehicle 1 Neuron 12     1
##  5 Vehicle A          Vehicle 1 Neuron 13     1
##  6 Vehicle A          Vehicle 1 Neuron 14     1
##  7 Vehicle A          Vehicle 1 Neuron 15     1
##  8 Vehicle A          Vehicle 1 Neuron 16     1
##  9 Vehicle A          Vehicle 1 Neuron 17     1
## 10 Vehicle A          Vehicle 1 Neuron 18     1
## # … with 286 more rows
```
…
Create a list of all of the datafiles and then iterate through them to read them all in.


```r
my_files <- list.files(path = "Data/Mouse/1F- MAPT+-+ AIS Length/")

Fig1F <- map(my_files, ~readclean(.))
Fig1F <- bind_rows(Fig1F)

Fig1F
```

```
## # A tibble: 298 × 4
##    `Distance_(microns)` filename                                   Neuron Length
##    <lgl>                <chr>                                      <chr>   <dbl>
##  1 NA                   (1F) MAPT+_+ Vehicle 1 =  6.2.21 WTs DIV … Neuro…   16.7
##  2 NA                   (1F) MAPT+_+ Vehicle 1 =  6.2.21 WTs DIV … Neuro…   21.1
##  3 NA                   (1F) MAPT+_+ Vehicle 1 =  6.2.21 WTs DIV … Neuro…   22.8
##  4 NA                   (1F) MAPT+_+ Vehicle 1 =  6.2.21 WTs DIV … Neuro…   18.7
##  5 NA                   (1F) MAPT+_+ Vehicle 1 =  6.2.21 WTs DIV … Neuro…   13.8
##  6 NA                   (1F) MAPT+_+ Vehicle 1 =  6.2.21 WTs DIV … Neuro…   21.4
##  7 NA                   (1F) MAPT+_+ Vehicle 1 =  6.2.21 WTs DIV … Neuro…   15.2
##  8 NA                   (1F) MAPT+_+ Vehicle 1 =  6.2.21 WTs DIV … Neuro…   12.2
##  9 NA                   (1F) MAPT+_+ Vehicle 1 =  6.2.21 WTs DIV … Neuro…   21.1
## 10 NA                   (1F) MAPT+_+ Vehicle 1 =  6.2.21 WTs DIV … Neuro…   16.4
## # … with 288 more rows
```

Create new variables for Mouse and Group


```r
Fig1F <- Fig1F %>%
  select(-`Distance_(microns)`) %>%
  separate(filename, into = c(NA, "Mouse"), sep = "\\+ ") %>%
  separate(Mouse, into = c("Mouse", NA), sep = " = ")

Fig1F
```

```
## # A tibble: 298 × 3
##    Mouse     Neuron    Length
##    <chr>     <chr>      <dbl>
##  1 Vehicle 1 Neuron 1    16.7
##  2 Vehicle 1 Neuron 2    21.1
##  3 Vehicle 1 Neuron 3    22.8
##  4 Vehicle 1 Neuron 4    18.7
##  5 Vehicle 1 Neuron 5    13.8
##  6 Vehicle 1 Neuron 6    21.4
##  7 Vehicle 1 Neuron 7    15.2
##  8 Vehicle 1 Neuron 8    12.2
##  9 Vehicle 1 Neuron 9    21.1
## 10 Vehicle 1 Neuron 10   16.4
## # … with 288 more rows
```
…
Cells from embryos from one pregnant female were divided into vehicle and xcTauOs so we need to know which pregnant female the cells came from.


```r
Fig1F <- Fig1F %>%
  mutate(Experiment = case_when(str_detect(Mouse,"1") ~ "A", 
                                str_detect(Mouse,"2") ~ "B", 
                                str_detect(Mouse,"3") ~ "C",
                                str_detect(Mouse,"4") ~ "D"))

Fig1F
```

```
## # A tibble: 298 × 5
##    Group   Mouse     Neuron    Length Experiment
##    <chr>   <chr>     <chr>      <dbl> <chr>     
##  1 Vehicle Vehicle 1 Neuron 1    16.7 A         
##  2 Vehicle Vehicle 1 Neuron 2    21.1 A         
##  3 Vehicle Vehicle 1 Neuron 3    22.8 A         
##  4 Vehicle Vehicle 1 Neuron 4    18.7 A         
##  5 Vehicle Vehicle 1 Neuron 5    13.8 A         
##  6 Vehicle Vehicle 1 Neuron 6    21.4 A         
##  7 Vehicle Vehicle 1 Neuron 7    15.2 A         
##  8 Vehicle Vehicle 1 Neuron 8    12.2 A         
##  9 Vehicle Vehicle 1 Neuron 9    21.1 A         
## 10 Vehicle Vehicle 1 Neuron 10   16.4 A         
## # … with 288 more rows
```
…
Create a list of all of the datafiles and then iterate through them to read them all in.


```r
my_files <- list.files(path = "Data/Mouse/2D - MAPT--- Soma-AIS Gap/")

Fig2D <- map(my_files, ~readclean(.))
Fig2D <- bind_rows(Fig2D)

Fig2D
```

```
## # A tibble: 368 × 4
##    `Distance_(microns)` filename                                    Neuron   Gap
##    <lgl>                <chr>                                       <chr>  <dbl>
##  1 NA                   (2D) MAPT-_- Vehicle 1 = 2.18.22 TKOs DIV … Neuro…  3.74
##  2 NA                   (2D) MAPT-_- Vehicle 1 = 2.18.22 TKOs DIV … Neuro…  6.55
##  3 NA                   (2D) MAPT-_- Vehicle 1 = 2.18.22 TKOs DIV … Neuro…  4.54
##  4 NA                   (2D) MAPT-_- Vehicle 1 = 2.18.22 TKOs DIV … Neuro…  4.47
##  5 NA                   (2D) MAPT-_- Vehicle 1 = 2.18.22 TKOs DIV … Neuro…  5.86
##  6 NA                   (2D) MAPT-_- Vehicle 1 = 2.18.22 TKOs DIV … Neuro…  6.15
##  7 NA                   (2D) MAPT-_- Vehicle 1 = 2.18.22 TKOs DIV … Neuro…  8.29
##  8 NA                   (2D) MAPT-_- Vehicle 1 = 2.18.22 TKOs DIV … Neuro…  5.34
##  9 NA                   (2D) MAPT-_- Vehicle 1 = 2.18.22 TKOs DIV … Neuro…  5.74
## 10 NA                   (2D) MAPT-_- Vehicle 1 = 2.18.22 TKOs DIV … Neuro…  2.60
## # … with 358 more rows
```

Create new variables for Mouse and Group


```r
Fig2D <- Fig2D %>%
  select(-`Distance_(microns)`) %>%
  separate(filename, into = c(NA, "Mouse"), sep = "\\- ") %>%
  separate(Mouse, into = c("Mouse", NA), sep = " = ")

Fig2D
```

```
## # A tibble: 368 × 3
##    Mouse     Neuron      Gap
##    <chr>     <chr>     <dbl>
##  1 Vehicle 1 Neuron 1   3.74
##  2 Vehicle 1 Neuron 2   6.55
##  3 Vehicle 1 Neuron 3   4.54
##  4 Vehicle 1 Neuron 4   4.47
##  5 Vehicle 1 Neuron 5   5.86
##  6 Vehicle 1 Neuron 6   6.15
##  7 Vehicle 1 Neuron 7   8.29
##  8 Vehicle 1 Neuron 8   5.34
##  9 Vehicle 1 Neuron 9   5.74
## 10 Vehicle 1 Neuron 10  2.60
## # … with 358 more rows
```
…
```r
Fig2D <- Fig2D %>%
  mutate(Experiment = case_when(str_detect(Mouse,"1") ~ "A", 
                                str_detect(Mouse,"2") ~ "B", 
                                str_detect(Mouse,"3") ~ "C",
                                str_detect(Mouse,"4") ~ "D",
                                str_detect(Mouse,"5") ~ "E"))

Fig2D
```

```
## # A tibble: 368 × 5
##    Group   Mouse     Neuron      Gap Experiment
##    <chr>   <chr>     <chr>     <dbl> <chr>     
##  1 Vehicle Vehicle 1 Neuron 1   3.74 A         
##  2 Vehicle Vehicle 1 Neuron 2   6.55 A         
##  3 Vehicle Vehicle 1 Neuron 3   4.54 A         
##  4 Vehicle Vehicle 1 Neuron 4   4.47 A         
##  5 Vehicle Vehicle 1 Neuron 5   5.86 A         
##  6 Vehicle Vehicle 1 Neuron 6   6.15 A         
##  7 Vehicle Vehicle 1 Neuron 7   8.29 A         
##  8 Vehicle Vehicle 1 Neuron 8   5.34 A         
##  9 Vehicle Vehicle 1 Neuron 9   5.74 A         
## 10 Vehicle Vehicle 1 Neuron 10  2.60 A         
## # … with 358 more rows
```
…
```
## New names:
## • `...80` -> `...2`
## • `...81` -> `...3`
## • `...82` -> `...4`
```

```r
Fig2E
```

```
## # A tibble: 193,976 × 7
##    `Distance_(microns)` filename                Neuron Conce…¹ ...2  ...3  ...4 
##                   <dbl> <chr>                   <chr>    <dbl> <chr> <chr> <chr>
##  1                    0 (2E) MAPT-_- Vehicle 1… Neuro…   16.8  <NA>  <NA>  <NA> 
##  2                    0 (2E) MAPT-_- Vehicle 1… Neuro…    5.09 <NA>  <NA>  <NA> 
##  3                    0 (2E) MAPT-_- Vehicle 1… Neuro…    6.14 <NA>  <NA>  <NA> 
##  4                    0 (2E) MAPT-_- Vehicle 1… Neuro…   12.3  <NA>  <NA>  <NA> 
##  5                    0 (2E) MAPT-_- Vehicle 1… Neuro…    8.20 <NA>  <NA>  <NA> 
##  6                    0 (2E) MAPT-_- Vehicle 1… Neuro…    8.56 <NA>  <NA>  <NA> 
##  7                    0 (2E) MAPT-_- Vehicle 1… Neuro…   18.7  <NA>  <NA>  <NA> 
##  8                    0 (2E) MAPT-_- Vehicle 1… Neuro…    8.20 <NA>  <NA>  <NA> 
##  9                    0 (2E) MAPT-_- Vehicle 1… Neuro…    6.49 <NA>  <NA>  <NA> 
## 10                    0 (2E) MAPT-_- Vehicle 1… Neuro…   25.3  <NA>  <NA>  <NA> 
## # … with 193,966 more rows, and abbreviated variable name ¹​Concentration
```
…
Create new variables for Mouse and Group


```r
Fig2E <- Fig2E %>%
  rename(Dist = `Distance_(microns)`) %>%
  separate(filename, into = c(NA, "Mouse"), sep = "\\- ") %>%
  separate(Mouse, into = c("Mouse", NA), sep = " = ")

Fig2E
```

```
## # A tibble: 193,976 × 4
##     Dist Mouse     Neuron    Concentration
##    <dbl> <chr>     <chr>             <dbl>
##  1     0 Vehicle 1 Neuron 1          16.8 
##  2     0 Vehicle 1 Neuron 2           5.09
##  3     0 Vehicle 1 Neuron 3           6.14
##  4     0 Vehicle 1 Neuron 4          12.3 
##  5     0 Vehicle 1 Neuron 5           8.20
##  6     0 Vehicle 1 Neuron 6           8.56
##  7     0 Vehicle 1 Neuron 7          18.7 
##  8     0 Vehicle 1 Neuron 8           8.20
##  9     0 Vehicle 1 Neuron 9           6.49
## 10     0 Vehicle 1 Neuron 10         25.3 
## # … with 193,966 more rows
```
…
```r
Fig2E <- Fig2E %>%
  mutate(Experiment = case_when(str_detect(Mouse,"1") ~ "A", 
                                str_detect(Mouse,"2") ~ "B", 
                                str_detect(Mouse,"3") ~ "C",
                                str_detect(Mouse,"4") ~ "D",
                                str_detect(Mouse,"5") ~ "E"))

Fig2E
```

```
## # A tibble: 193,976 × 6
##    Group   Mouse     Neuron     Dist Concentration Experiment
##    <chr>   <chr>     <chr>     <dbl>         <dbl> <chr>     
##  1 Vehicle Vehicle 1 Neuron 1      0         16.8  A         
##  2 Vehicle Vehicle 1 Neuron 2      0          5.09 A         
##  3 Vehicle Vehicle 1 Neuron 3      0          6.14 A         
##  4 Vehicle Vehicle 1 Neuron 4      0         12.3  A         
##  5 Vehicle Vehicle 1 Neuron 5      0          8.20 A         
##  6 Vehicle Vehicle 1 Neuron 6      0          8.56 A         
##  7 Vehicle Vehicle 1 Neuron 7      0         18.7  A         
##  8 Vehicle Vehicle 1 Neuron 8      0          8.20 A         
##  9 Vehicle Vehicle 1 Neuron 9      0          6.49 A         
## 10 Vehicle Vehicle 1 Neuron 10     0         25.3  A         
## # … with 193,966 more rows
```
…
