…
Create a list of all of the datafiles and then iterate through them to read them all in.


```r
my_files <- list.files(path = "Data/Human/5D - Mean Concentration _ 5E - AIS Length/")

dfs <- map(my_files, ~readclean(.))
alldat <- bind_rows(dfs)

alldat
```

```
## # A tibble: 101,945 × 4
##    `Distance_(microns)` filename                    Neuron    TRIM46_intensity
##                   <dbl> <chr>                       <chr>                <dbl>
##  1                    0 5D 5E - AD 1 = A16-109.xlsx Neuron 1              144.
##  2                    0 5D 5E - AD 1 = A16-109.xlsx Neuron 2              160 
##  3                    0 5D 5E - AD 1 = A16-109.xlsx Neuron 3              144 
##  4                    0 5D 5E - AD 1 = A16-109.xlsx Neuron 4              161 
##  5                    0 5D 5E - AD 1 = A16-109.xlsx Neuron 5              139.
##  6                    0 5D 5E - AD 1 = A16-109.xlsx Neuron 6              133 
##  7                    0 5D 5E - AD 1 = A16-109.xlsx Neuron 7              138 
##  8                    0 5D 5E - AD 1 = A16-109.xlsx Neuron 8              144 
##  9                    0 5D 5E - AD 1 = A16-109.xlsx Neuron 9              172 
## 10                    0 5D 5E - AD 1 = A16-109.xlsx Neuron 10             142.
## # … with 101,935 more rows
```
…
Create two new columns to denote Status and Brain


```r
alldat <- alldat %>%
  separate(filename, into = c(NA, "filename"), sep = " - ") %>%
  separate(filename, into = c("Status", "Brain"), sep = " = ") %>%
  separate(Status, into = c("Status", NA), sep = " ") %>%
  separate(Brain, into = c("Brain", NA), sep = "\\.")

alldat
```

```
## # A tibble: 101,945 × 5
##    `Distance_(microns)` Status Brain   Neuron    TRIM46_intensity
##                   <dbl> <chr>  <chr>   <chr>                <dbl>
##  1                    0 AD     A16-109 Neuron 1              144.
##  2                    0 AD     A16-109 Neuron 2              160 
##  3                    0 AD     A16-109 Neuron 3              144 
##  4                    0 AD     A16-109 Neuron 4              161 
##  5                    0 AD     A16-109 Neuron 5              139.
##  6                    0 AD     A16-109 Neuron 6              133 
##  7                    0 AD     A16-109 Neuron 7              138 
##  8                    0 AD     A16-109 Neuron 8              144 
##  9                    0 AD     A16-109 Neuron 9              172 
## 10                    0 AD     A16-109 Neuron 10             142.
## # … with 101,935 more rows
```
…
```r
alldat <- alldat %>%
  arrange(Brain, Neuron, Dist) %>%
  drop_na(TRIM46_intensity)
```

Create new column that designates whether or not Neuron has a tangle or tau accumulation


```r
alldat %>% count(Brain, Neuron) #1160 unique neurons
```

```
## # A tibble: 1,160 × 3
##    Brain  Neuron                n
##    <chr>  <chr>             <int>
##  1 A11-30 Neuron 1 (tang)      14
##  2 A11-30 Neuron 10            11
##  3 A11-30 Neuron 100           25
##  4 A11-30 Neuron 101           30
##  5 A11-30 Neuron 102 (ta)      19
##  6 A11-30 Neuron 103 (tang)    12
##  7 A11-30 Neuron 104 (ta)      21
##  8 A11-30 Neuron 105 (ta)      19
##  9 A11-30 Neuron 106           12
## 10 A11-30 Neuron 107 (tang)    13
## # … with 1,150 more rows
```

```r
alldat %>% count(Brain, Neuron) %>% arrange(-n)
```

```
## # A tibble: 1,160 × 3
##    Brain    Neuron              n
##    <chr>    <chr>           <int>
##  1 A14-3    Neuron 101         89
##  2 A16-109  Neuron 33          72
##  3 A15-167_ Neuron 6           71
##  4 A14-3    Neuron 95          70
##  5 A16-109  Neuron 43          70
##  6 A14-3    Neuron 92          69
##  7 A13-66   Neuron 158 (ta)    65
##  8 A14-3    Neuron 104         64
##  9 A14-3    Neuron 25          64
## 10 A14-3    Neuron 70          64
## # … with 1,150 more rows
```
…
```
## `summarise()` has grouped output by 'Status', 'Brain', 'Neuron'. You can
## override using the `.groups` argument.
```

```r
avgint
```

```
## # A tibble: 1,160 × 6
##    Status Brain  Neuron    Tangle Mean_Intensity     n
##    <fct>  <chr>  <chr>     <chr>           <dbl> <int>
##  1 Non-AD A14-13 Neuron 1  none             145.    26
##  2 Non-AD A14-13 Neuron 10 none             196.    20
##  3 Non-AD A14-13 Neuron 11 none             197.    26
##  4 Non-AD A14-13 Neuron 12 none             151.    12
##  5 Non-AD A14-13 Neuron 13 none             206.    38
##  6 Non-AD A14-13 Neuron 14 none             172.    21
##  7 Non-AD A14-13 Neuron 15 none             205.    34
##  8 Non-AD A14-13 Neuron 16 none             176.    24
##  9 Non-AD A14-13 Neuron 17 none             176.    24
## 10 Non-AD A14-13 Neuron 18 none             179.    17
## # … with 1,150 more rows
```
…
Create dataset of just the max value for each neuron.

Check that each neuron only has one maximum


```r
alldat %>% 
  filter(Max_intensity == roll_Intensity) %>%
  count(Brain, Neuron) %>%
  arrange(-n)
```

```
## # A tibble: 1,160 × 3
##    Brain   Neuron                n
##    <chr>   <chr>             <int>
##  1 A16-174 Neuron 62 (ta)        2
##  2 A11-30  Neuron 1 (tang)       1
##  3 A11-30  Neuron 10             1
##  4 A11-30  Neuron 100            1
##  5 A11-30  Neuron 101            1
##  6 A11-30  Neuron 102 (ta)       1
##  7 A11-30  Neuron 103 (tang)     1
##  8 A11-30  Neuron 104 (ta)       1
##  9 A11-30  Neuron 105 (ta)       1
## 10 A11-30  Neuron 106            1
## # … with 1,150 more rows
```
…
Just preserve one of these datapoints, so that this neuron does not count twice


```r
maxint <- alldat %>% 
  filter(Max_intensity == roll_Intensity) %>%
  filter(!(Brain == "A16-174" & Neuron == "Neuron 62 (ta)" & TRIM46_intensity == 372))

maxint
```

```
## # A tibble: 1,160 × 9
##     Dist Status Brain  Neuron            TRIM46…¹ Tangle roll_…² Max_i…³ Min_i…⁴
##    <dbl> <fct>  <chr>  <chr>                <dbl> <chr>    <dbl>   <dbl>   <dbl>
##  1 0.644 AD     A11-30 Neuron 1 (tang)       315. tangle    287.    287.    194.
##  2 0.966 AD     A11-30 Neuron 10             293. none      302.    302.    215.
##  3 3.06  AD     A11-30 Neuron 100            258. none      252.    252.    183.
##  4 1.93  AD     A11-30 Neuron 101            243. none      240.    240.    176.
##  5 1.61  AD     A11-30 Neuron 102 (ta)       180. ta        206.    206.    172.
##  6 1.13  AD     A11-30 Neuron 103 (tang)     220. tangle    222.    222.    191.
##  7 0.322 AD     A11-30 Neuron 104 (ta)       184  ta        197.    197.    155.
##  8 1.29  AD     A11-30 Neuron 105 (ta)       289. ta        260.    260.    192.
##  9 0.483 AD     A11-30 Neuron 106            199. none      227.    227.    207.
## 10 1.61  AD     A11-30 Neuron 107 (tang)     187. tangle    194.    194.    185.
## # … with 1,150 more rows, and abbreviated variable names ¹​TRIM46_intensity,
## #   ²​roll_Intensity, ³​Max_intensity, ⁴​Min_intensity
```
…
Create dataset of just the min value for each neuron.

Check that each neuron only has one minimum


```r
alldat %>% 
  filter(Min_intensity == roll_Intensity) %>%
  count(Brain, Neuron) %>%
  arrange(-n)
```

```
## # A tibble: 1,160 × 3
##    Brain  Neuron                n
##    <chr>  <chr>             <int>
##  1 A11-30 Neuron 1 (tang)       1
##  2 A11-30 Neuron 10             1
##  3 A11-30 Neuron 100            1
##  4 A11-30 Neuron 101            1
##  5 A11-30 Neuron 102 (ta)       1
##  6 A11-30 Neuron 103 (tang)     1
##  7 A11-30 Neuron 104 (ta)       1
##  8 A11-30 Neuron 105 (ta)       1
##  9 A11-30 Neuron 106            1
## 10 A11-30 Neuron 107 (tang)     1
## # … with 1,150 more rows
```
…
